hp2Baron
…
dog_descrip <- dog_descrip %>% 
  anti_join(stop_words)

Joining with `by = join_by(word)`

here, we have a simple table of the most common words within the descriptions

dog_descrip_freq <- dog_descrip %>%
  count(word, sort = TRUE)

dog_descrip_freq

# A tibble: 57,986 × 2
   word            n
   <chr>       <int>
 1 adoption    63643
 2 dogs        61683
 3 dog         54834
 4 home        53067
 5 application 40170
 6 foster      27489
 7 loves       26017
 8 love        25948
 9 family      24381
10 meet        21190
# … with 57,976 more rows
…
dog_sentiment <- dog_descrip_freq %>%
  inner_join(get_sentiments("bing"))

Joining with `by = join_by(word)`

Warning in inner_join(., get_sentiments("bing")): Each row in `x` is expected to match at most 1 row in `y`.
ℹ Row 42448 of `x` matches multiple rows.
ℹ If multiple matches are expected, set `multiple = "all"` to silence this
  warning.

dog_sentiment

# A tibble: 3,096 × 3
   word          n sentiment
   <chr>     <int> <chr>    
 1 loves     26017 positive 
 2 love      25948 positive 
 3 sweet     18234 positive 
 4 loving     9573 positive 
 5 happy      8585 positive 
 6 friendly   7759 positive 
 7 ready      7317 positive 
 8 playful    5579 positive 
 9 wonderful  4819 positive 
10 likes      4766 positive 
# … with 3,086 more rows
…
Joining with `by = join_by(word)`

Warning in inner_join(., get_sentiments("bing")): Each row in `x` is expected to match at most 1 row in `y`.
ℹ Row 2561246 of `x` matches multiple rows.
ℹ If multiple matches are expected, set `multiple = "all"` to silence this
  warning.

this is a simple table of the most frequent words with eithe positive or negative sentiment

dog_sentiment %>%
  group_by(n) %>%
  summarise(n = n()) %>%
  arrange(desc(n))

# A tibble: 416 × 1
       n
   <int>
 1   647
 2   289
 3   221
 4   157
 5   113
 6    91
 7    75
 8    62
 9    61
10    60
# … with 406 more rows

dog_sentiment

# A tibble: 3,096 × 3
   word          n sentiment
   <chr>     <int> <chr>    
 1 loves     26017 positive 
 2 love      25948 positive 
 3 sweet     18234 positive 
 4 loving     9573 positive 
 5 happy      8585 positive 
 6 friendly   7759 positive 
 7 ready      7317 positive 
 8 playful    5579 positive 
 9 wonderful  4819 positive 
10 likes      4766 positive 
# … with 3,086 more rows
…
question 2

bigram analysis of dog descriptions

I had some luck with this code, but not quite enough.

here, I added the bigrams column to the data frame

dog_bigrams <- dogs %>% 
  unnest_tokens(bigram, description, token = "ngrams", n = 2)

dog_bigrams

# A tibble: 8,363,430 × 7
         id breed_primary                  age    sex   size   name   bigram    
      <dbl> <chr>                          <chr>  <chr> <chr>  <chr>  <chr>     
 1 46042150 American Staffordshire Terrier Senior Male  Medium harley harley is 
 2 46042150 American Staffordshire Terrier Senior Male  Medium harley is not    
 3 46042150 American Staffordshire Terrier Senior Male  Medium harley not sure  
 4 46042150 American Staffordshire Terrier Senior Male  Medium harley sure how  
 5 46042150 American Staffordshire Terrier Senior Male  Medium harley how he    
 6 46042150 American Staffordshire Terrier Senior Male  Medium harley he wound  
 7 46042150 American Staffordshire Terrier Senior Male  Medium harley wound up  
 8 46042150 American Staffordshire Terrier Senior Male  Medium harley up at     
 9 46042150 American Staffordshire Terrier Senior Male  Medium harley at shelter
10 46042150 American Staffordshire Terrier Senior Male  Medium harley shelter in
# … with 8,363,420 more rows
…
mini question

What are the most popular names? How do names interact with age and sex?

here, I just wanted to see the most popular names. not surprised by bella or buddy!

dogs %>%
  group_by(name, age) %>%
  summarise(n = n()) %>%
  arrange(desc(n))

`summarise()` has grouped output by 'name'. You can override using the
`.groups` argument.

# A tibble: 27,453 × 3
# Groups:   name [20,274]
   name    age       n
   <chr>   <chr> <int>
 1 bella   Adult   143
 2 buddy   Adult   107
 3 max     Adult   102
 4 duke    Adult    93
 5 daisy   Adult    91
 6 rocky   Adult    87
 7 lucy    Adult    85
 8 molly   Adult    84
 9 charlie Adult    81
10 coco    Adult    77
# … with 27,443 more rows
…
looking at relationship between name and description sentiment

this table worked, but I’m not sure it tells us much useful information.

dog_sentiment2 %>%
  group_by(name, sentiment) %>%
  summarise(n = n()) %>%
  arrange(desc(n))

`summarise()` has grouped output by 'name'. You can override using the
`.groups` argument.

# A tibble: 29,851 × 3
# Groups:   name [17,125]
   name    sentiment     n
   <chr>   <chr>     <int>
 1 bella   positive   1221
 2 buddy   positive   1073
 3 max     positive    908
 4 lucy    positive    831
 5 duke    positive    817
 6 luna    positive    802
 7 coco    positive    797
 8 charlie positive    775
 9 daisy   positive    760
10 rocky   positive    747
# … with 29,841 more rows
…
